<svg xmlns="http://www.w3.org/2000/svg" width="93.885" height="98" viewBox="0 0 93.885 98">
  <g id="clock" transform="translate(-10.75)">
    <g id="Grupo_25601" data-name="Grupo 25601" transform="translate(12.185 1.436)">
      <circle id="Elipse_1206" data-name="Elipse 1206" cx="43.449" cy="43.449" r="43.449" transform="translate(4.116 4.074)" fill="#ffc280"/>
      <path id="Trazado_6803" data-name="Trazado 6803" d="M108.954,75.128A47.57,47.57,0,1,1,65.814,7.5V55.064Z" transform="translate(-18.25 -7.5)" fill="#77cfff"/>
      <g id="Grupo_25600" data-name="Grupo 25600" transform="translate(27.197 13.414)">
        <path id="Trazado_6804" data-name="Trazado 6804" d="M205.007,119.44a42.606,42.606,0,0,1,4.085,14.417,3.47,3.47,0,0,1-.969,2.632,57.479,57.479,0,0,1-6.293,5.585,4.329,4.329,0,0,0,0,6.867,57.478,57.478,0,0,1,6.293,5.585,3.47,3.47,0,0,1,.969,2.632,42.611,42.611,0,0,1-4.085,14.417H177.434a42.611,42.611,0,0,1-4.085-14.417,3.47,3.47,0,0,1,.969-2.632,57.48,57.48,0,0,1,6.293-5.585,4.329,4.329,0,0,0,0-6.867,57.478,57.478,0,0,1-6.293-5.585,3.47,3.47,0,0,1-.969-2.632,42.611,42.611,0,0,1,4.085-14.417Z" transform="translate(-170.853 -111.428)" fill="#d3effb"/>
        <path id="Trazado_6805" data-name="Trazado 6805" d="M186.735,148.987a54.488,54.488,0,0,0-3.092,6.782,89.425,89.425,0,0,0,1.67,15.8h-7.878a42.6,42.6,0,0,1-4.086-14.419,3.469,3.469,0,0,1,.969-2.632,57.468,57.468,0,0,1,6.292-5.586,4.326,4.326,0,0,0,0-6.865,57.488,57.488,0,0,1-6.292-5.586,3.47,3.47,0,0,1-.969-2.632,42.61,42.61,0,0,1,4.086-14.419h7.878a89.425,89.425,0,0,0-1.67,15.8,54.488,54.488,0,0,0,3.092,6.782A8.842,8.842,0,0,1,186.735,148.987Z" transform="translate(-170.853 -111.423)" fill="#9dc6fb"/>
        <path id="Trazado_6806" data-name="Trazado 6806" d="M229.408,169.12a6.439,6.439,0,0,1-2.047,6.375c-.665.577-1.412,1.193-2.229,1.817a7.335,7.335,0,0,0-2.231,2.79,5.353,5.353,0,0,1-9.678,0,7.332,7.332,0,0,0-2.23-2.79c-.817-.624-1.564-1.24-2.228-1.816a6.439,6.439,0,0,1-2.049-6.372q.059-.243.12-.483h22.453Q229.35,168.879,229.408,169.12Z" transform="translate(-197.694 -151.212)" fill="#f6e266"/>
        <path id="Trazado_6807" data-name="Trazado 6807" d="M218.062,183.162a5.3,5.3,0,0,1-4.839-3.064,7.343,7.343,0,0,0-2.23-2.791c-.817-.624-1.564-1.24-2.228-1.816a6.441,6.441,0,0,1-2.05-6.372c.04-.161.08-.323.121-.482h6.789c-.017.159-.033.322-.048.482a13.442,13.442,0,0,0,.81,6.372c.262.576.559,1.192.88,1.816a10.059,10.059,0,0,1,.882,2.791C216.489,181.981,217.245,183.162,218.062,183.162Z" transform="translate(-197.695 -151.207)" fill="#ffd064"/>
        <g id="Grupo_25598" data-name="Grupo 25598" transform="translate(10.284 41.384)">
          <path id="Trazado_6808" data-name="Trazado 6808" d="M234.236,308.926c0-6.538-5.183-11.9-8.117-14.412a3.026,3.026,0,0,0-3.933,0c-2.934,2.512-8.117,7.873-8.117,14.412" transform="translate(-214.069 -293.788)" fill="#f6e266"/>
          <path id="Trazado_6809" data-name="Trazado 6809" d="M222.186,294.7a2.98,2.98,0,0,1,1.448-.68,2.14,2.14,0,0,0-.172.34,42,42,0,0,0-2.853,14.753H214.07C214.07,302.577,219.251,297.214,222.186,294.7Z" transform="translate(-214.07 -293.978)" fill="#ffd064"/>
        </g>
        <path id="Trazado_6810" data-name="Trazado 6810" d="M196.94,372.875H164.478a4.136,4.136,0,0,0-4.136,4.136v3.508a4.136,4.136,0,0,0,4.136,4.136H196.94a4.136,4.136,0,0,0,4.136-4.136v-3.508A4.136,4.136,0,0,0,196.94,372.875Z" transform="translate(-160.341 -316.353)" fill="#9d6b6b"/>
        <path id="Trazado_6811" data-name="Trazado 6811" d="M196.94,77.582H164.478a4.136,4.136,0,0,0-4.136,4.136v3.508a4.136,4.136,0,0,0,4.136,4.136H196.94a4.136,4.136,0,0,0,4.136-4.136V81.718A4.136,4.136,0,0,0,196.94,77.582Z" transform="translate(-160.341 -77.581)" fill="#9d6b6b"/>
        <g id="Grupo_25599" data-name="Grupo 25599" transform="translate(0)">
          <path id="Trazado_6812" data-name="Trazado 6812" d="M171.731,89.358h-7.253a4.136,4.136,0,0,1-4.136-4.134V81.715a4.136,4.136,0,0,1,4.136-4.136h7.253a4.136,4.136,0,0,0-4.136,4.136v3.509A4.136,4.136,0,0,0,171.731,89.358Z" transform="translate(-160.341 -77.579)" fill="#8b5e5e"/>
          <path id="Trazado_6813" data-name="Trazado 6813" d="M171.728,384.653h-7.253a4.136,4.136,0,0,1-4.136-4.134V377.01a4.136,4.136,0,0,1,4.136-4.136h7.253a4.136,4.136,0,0,0-4.136,4.136v3.509A4.136,4.136,0,0,0,171.728,384.653Z" transform="translate(-160.339 -316.353)" fill="#8b5e5e"/>
        </g>
      </g>
    </g>
    <g id="Grupo_25602" data-name="Grupo 25602" transform="translate(10.75 0)">
      <path id="Trazado_6814" data-name="Trazado 6814" d="M103.494,67.761l-2.468-1.148A44.889,44.889,0,0,0,61.185,4.1V1.436A1.435,1.435,0,0,0,59.75,0,48.969,48.969,0,0,0,18.011,23.322a1.436,1.436,0,1,0,2.444,1.507A46.095,46.095,0,0,1,58.315,2.894V13.415h-14.8a5.578,5.578,0,0,0-5.571,5.571v3.508a5.581,5.581,0,0,0,4.419,5.451,37.957,37.957,0,0,0-1.92,9.24,4.9,4.9,0,0,0,1.37,3.722,58.338,58.338,0,0,0,6.453,5.73,2.893,2.893,0,0,1,0,4.585,58.687,58.687,0,0,0-6.451,5.727,4.909,4.909,0,0,0-1.371,3.724,38.1,38.1,0,0,0,1.965,9.373,5.581,5.581,0,0,0-4.463,5.46v3.509a5.578,5.578,0,0,0,5.571,5.571H75.981a5.578,5.578,0,0,0,5.571-5.571V75.507a5.581,5.581,0,0,0-4.463-5.46,38.1,38.1,0,0,0,1.965-9.372,4.865,4.865,0,0,0-.062-1.143l8.366,3.891a1.435,1.435,0,1,0,1.211-2.6L75.334,54.664c-1.145-1.051-2.522-2.233-4.1-3.441a2.893,2.893,0,0,1,0-4.585,58.746,58.746,0,0,0,6.454-5.729,4.9,4.9,0,0,0,1.369-3.722,37.952,37.952,0,0,0-1.92-9.241,5.58,5.58,0,0,0,4.418-5.451V18.986a5.578,5.578,0,0,0-5.571-5.571h-14.8V6.973A42.028,42.028,0,0,1,98.421,65.4l-4.673-2.173a1.435,1.435,0,1,0-1.21,2.6l8.423,3.917A46.135,46.135,0,0,1,13.621,49a45.734,45.734,0,0,1,4.2-19.264,1.436,1.436,0,0,0-2.608-1.2,49.011,49.011,0,0,0,71.21,61.573A49.1,49.1,0,0,0,104.19,69.669a1.435,1.435,0,0,0-.7-1.908ZM78.681,75.506v3.509a2.7,2.7,0,0,1-2.7,2.7H43.519a2.7,2.7,0,0,1-2.7-2.7V75.506a2.7,2.7,0,0,1,2.7-2.7H75.981A2.7,2.7,0,0,1,78.681,75.506ZM51.2,69.935c.372-2.782,1.967-7.136,7.516-11.885a1.6,1.6,0,0,1,2.066,0c5.548,4.75,7.143,9.1,7.515,11.886H51.2Zm24.42-31.023a55.818,55.818,0,0,1-6.134,5.445,5.765,5.765,0,0,0,0,9.146,56.182,56.182,0,0,1,6.133,5.441,2.04,2.04,0,0,1,.568,1.545,36.238,36.238,0,0,1-2.1,9.446h-2.9c-.657-6.4-5.545-11.5-8.543-14.067a4.437,4.437,0,0,0-5.8,0c-3,2.566-7.885,7.668-8.543,14.067h-2.9a36.247,36.247,0,0,1-2.1-9.448,2.033,2.033,0,0,1,.57-1.543A55.818,55.818,0,0,1,50.013,53.5a5.765,5.765,0,0,0,0-9.146,56.212,56.212,0,0,1-6.134-5.447,2.024,2.024,0,0,1-.568-1.539,36.057,36.057,0,0,1,2.047-9.305H74.143a36.053,36.053,0,0,1,2.047,9.306,2.031,2.031,0,0,1-.568,1.54Zm3.06-19.926v3.508a2.7,2.7,0,0,1-2.7,2.7H43.519a2.7,2.7,0,0,1-2.7-2.7V18.986a2.7,2.7,0,0,1,2.7-2.7H75.981A2.7,2.7,0,0,1,78.681,18.986Z" transform="translate(-10.75 0)"/>
      <path id="Trazado_6815" data-name="Trazado 6815" d="M224.6,162.218a1.436,1.436,0,0,0-1.39-1.076H200.762a1.436,1.436,0,0,0-1.39,1.077q-.065.25-.126.5a7.847,7.847,0,0,0,2.5,7.793c.753.652,1.526,1.282,2.3,1.872a5.932,5.932,0,0,1,1.8,2.245,6.789,6.789,0,0,0,12.291,0,5.935,5.935,0,0,1,1.8-2.245c.772-.59,1.545-1.22,2.3-1.873a7.845,7.845,0,0,0,2.5-7.8Q224.669,162.466,224.6,162.218Zm-4.258,6.128c-.708.614-1.435,1.207-2.16,1.761a8.818,8.818,0,0,0-2.666,3.336,3.918,3.918,0,0,1-7.065,0,8.811,8.811,0,0,0-2.665-3.337c-.725-.554-1.451-1.147-2.16-1.761a4.987,4.987,0,0,1-1.7-4.334h20.12A4.987,4.987,0,0,1,220.347,168.346Z" transform="translate(-162.988 -130.298)"/>
      <path id="Trazado_6816" data-name="Trazado 6816" d="M281.512,345.108v.069a1.436,1.436,0,0,0,2.871,0v-.069a1.436,1.436,0,0,0-2.871,0Z" transform="translate(-229.686 -277.891)"/>
      <path id="Trazado_6817" data-name="Trazado 6817" d="M271.053,325.8v.069a1.436,1.436,0,0,0,2.871,0V325.8a1.436,1.436,0,0,0-2.871,0Z" transform="translate(-221.229 -262.276)"/>
      <path id="Trazado_6818" data-name="Trazado 6818" d="M261.286,343.493a1.435,1.435,0,0,0-1.436,1.436V345a1.436,1.436,0,0,0,2.871,0v-.069A1.436,1.436,0,0,0,261.286,343.493Z" transform="translate(-212.171 -277.746)"/>
    </g>
  </g>
</svg>
