<svg id="Filledoutline" xmlns="http://www.w3.org/2000/svg" width="92.839" height="96.61" viewBox="0 0 92.839 96.61">
  <rect id="Rectángulo_12316" data-name="Rectángulo 12316" width="54.41" height="75.817" rx="7" transform="translate(24.601 7.388)" fill="#0093b9"/>
  <path id="Trazado_6426" data-name="Trazado 6426" d="M176,88h41.864v62.8H176Z" transform="translate(-145.407 -73.508)" fill="#e3e4e2"/>
  <path id="Trazado_6427" data-name="Trazado 6427" d="M246.542,36.881H224V30.441h6.441L228.831,24h12.881l-1.61,6.441h6.441Z" transform="translate(-183.746 -22.39)" fill="#57c3c1"/>
  <path id="Trazado_6428" data-name="Trazado 6428" d="M89.966,283.526H32V232H60.983v25.763H89.966Z" transform="translate(-30.39 -188.525)" fill="#f8bc1e"/>
  <path id="Trazado_6429" data-name="Trazado 6429" d="M224,360h9.661v9.661H224Z" transform="translate(-183.746 -290.763)" fill="#f9da62"/>
  <path id="Trazado_6430" data-name="Trazado 6430" d="M211.373,368h-2.415a2.415,2.415,0,0,0-2.415,2.415V374.5a12.821,12.821,0,0,1-12.819,12.82h-7.308A2.415,2.415,0,0,0,184,389.737v2.415h27.373Z" transform="translate(-151.797 -297.152)" fill="#f5a922"/>
  <path id="Trazado_6431" data-name="Trazado 6431" d="M80,360h9.661v9.661H80Z" transform="translate(-68.729 -290.763)" fill="#f9da62"/>
  <path id="Trazado_6432" data-name="Trazado 6432" d="M67.373,368H64.958a2.415,2.415,0,0,0-2.415,2.415V374.5a12.821,12.821,0,0,1-12.819,12.82H42.415A2.415,2.415,0,0,0,40,389.737v2.415H67.373Z" transform="translate(-36.78 -297.152)" fill="#f5a922"/>
  <path id="Trazado_6433" data-name="Trazado 6433" d="M80,232h9.661v9.661H80Z" transform="translate(-68.729 -188.525)" fill="#f9da62"/>
  <path id="Trazado_6434" data-name="Trazado 6434" d="M67.373,240H64.958a2.415,2.415,0,0,0-2.415,2.415V246.5a12.821,12.821,0,0,1-12.819,12.82H42.415A2.415,2.415,0,0,0,40,261.737v2.415H67.373Z" transform="translate(-36.78 -194.915)" fill="#f5a922"/>
  <path id="Trazado_6435" data-name="Trazado 6435" d="M266.286,236.923l-43.193,12.923L216,248.607l5.247-4.931,43.193-12.923a3.22,3.22,0,1,1,1.846,6.17Z" transform="translate(-177.356 -187.42)" fill="#f8bc1e"/>
  <path id="Trazado_6436" data-name="Trazado 6436" d="M263.6,226.061a4.83,4.83,0,0,0-6.012-3.243L214.4,235.741a1.613,1.613,0,0,0-.641.369l-5.248,4.931a1.61,1.61,0,0,0,.825,2.76l7.093,1.239a1.614,1.614,0,0,0,.739-.044l35.047-10.486.152,3.316-11.136,3.332.923,3.085,12.341-3.693a1.61,1.61,0,0,0,1.147-1.616l-.246-5.375,4.966-1.486a4.831,4.831,0,0,0,3.243-6.012ZM216.606,241.8l-3.547-.62,2.624-2.466,7.349-2.2.923,3.085Zm10.434-3.122-.923-3.085,25.791-7.717.152,3.316Zm33.351-10.471a1.6,1.6,0,0,1-.956.778l-4.195,1.255-.152-3.316,3.423-1.024a1.61,1.61,0,0,1,1.879,2.307Z" transform="translate(-170.966 -181.028)"/>
  <path id="Trazado_6437" data-name="Trazado 6437" d="M83.576,249.763H56.2V225.61a1.61,1.61,0,0,0-1.61-1.61H25.61A1.61,1.61,0,0,0,24,225.61v51.526a1.61,1.61,0,0,0,1.61,1.61H83.576a1.61,1.61,0,0,0,1.61-1.61V251.373A1.61,1.61,0,0,0,83.576,249.763Zm-17.712,3.22h6.441v6.441H65.864ZM36.881,227.22h6.441v6.441H36.881Zm-9.661,0h6.441v8.051a1.61,1.61,0,0,0,1.61,1.61h9.661a1.61,1.61,0,0,0,1.61-1.61V227.22h6.441v22.542H27.22Zm9.661,25.763h6.441v6.441H36.881Zm-9.661,0h6.441v8.051a1.61,1.61,0,0,0,1.61,1.61h9.661a1.61,1.61,0,0,0,1.61-1.61v-8.051h6.441v22.542H27.22Zm54.746,22.542H56.2V252.983h6.441v8.051a1.61,1.61,0,0,0,1.61,1.61h9.661a1.61,1.61,0,0,0,1.61-1.61v-8.051h6.441Z" transform="translate(-24 -182.136)"/>
  <path id="Trazado_6438" data-name="Trazado 6438" d="M280,448h3.22v3.22H280Z" transform="translate(-228.474 -361.051)"/>
  <path id="Trazado_6439" data-name="Trazado 6439" d="M136,448h3.22v3.22H136Z" transform="translate(-113.458 -361.051)"/>
  <path id="Trazado_6440" data-name="Trazado 6440" d="M136,320h3.22v3.22H136Z" transform="translate(-113.458 -258.813)"/>
  <path id="Trazado_6441" data-name="Trazado 6441" d="M139.22,28.881a3.224,3.224,0,0,1,3.22-3.22H152.1v3.22h-8.051a1.61,1.61,0,0,0-1.61,1.61V54.644h3.22V32.1h38.644V57.865h3.22V30.492a1.61,1.61,0,0,0-1.61-1.61h-8.051v-3.22h9.661a3.224,3.224,0,0,1,3.22,3.22V56.254h3.22V28.881a6.448,6.448,0,0,0-6.441-6.441h-15.65l1.11-4.44a1.61,1.61,0,0,0-1.562-2H158.542a1.61,1.61,0,0,0-1.562,2l1.11,4.44h-15.65A6.448,6.448,0,0,0,136,28.881V54.644h3.22Zm16.1-3.22h4.831a1.61,1.61,0,0,0,1.562-2l-1.11-4.44h8.757l-1.11,4.44a1.61,1.61,0,0,0,1.562,2h4.831v3.22H155.322Z" transform="translate(-113.458 -16)"/>
  <path id="Trazado_6442" data-name="Trazado 6442" d="M356.881,350.492a3.224,3.224,0,0,1-3.22,3.22H344v3.22h9.661a6.448,6.448,0,0,0,6.441-6.441V336h-3.22Z" transform="translate(-279.593 -271.593)"/>
  <path id="Trazado_6443" data-name="Trazado 6443" d="M353.661,355.271V344h-3.22v9.661H344v3.22h8.051A1.61,1.61,0,0,0,353.661,355.271Z" transform="translate(-279.593 -277.983)"/>
  <path id="Trazado_6444" data-name="Trazado 6444" d="M209.661,113.61a1.61,1.61,0,0,0-1.61-1.61H201.61a1.61,1.61,0,0,0-1.61,1.61v6.441a1.61,1.61,0,0,0,1.61,1.61h6.441a1.61,1.61,0,0,0,1.61-1.61Zm-3.22,4.831h-3.22v-3.22h3.22Z" transform="translate(-164.576 -92.678)"/>
  <path id="Trazado_6445" data-name="Trazado 6445" d="M208.051,184H201.61a1.61,1.61,0,0,0-1.61,1.61v6.441a1.61,1.61,0,0,0,1.61,1.61h6.441a1.61,1.61,0,0,0,1.61-1.61V185.61A1.61,1.61,0,0,0,208.051,184Zm-1.61,6.441h-3.22v-3.22h3.22Z" transform="translate(-164.576 -150.186)"/>
  <path id="Trazado_6446" data-name="Trazado 6446" d="M264,112h3.22v3.22H264Z" transform="translate(-215.695 -92.678)"/>
  <path id="Trazado_6447" data-name="Trazado 6447" d="M264,144h19.322v3.22H264Z" transform="translate(-215.695 -118.237)"/>
  <path id="Trazado_6448" data-name="Trazado 6448" d="M296,112h12.881v3.22H296Z" transform="translate(-241.254 -92.678)"/>
  <path id="Trazado_6449" data-name="Trazado 6449" d="M264,184h3.22v3.22H264Z" transform="translate(-215.695 -150.186)"/>
  <path id="Trazado_6450" data-name="Trazado 6450" d="M264,216h19.322v3.22H264Z" transform="translate(-215.695 -175.746)"/>
  <path id="Trazado_6451" data-name="Trazado 6451" d="M296,184h12.881v3.22H296Z" transform="translate(-241.254 -150.186)"/>
</svg>
