<svg xmlns="http://www.w3.org/2000/svg" width="113.605" height="115.947" viewBox="0 0 113.605 115.947">
  <g id="heart" transform="translate(-5.171)">
    <path id="Trazado_7260" data-name="Trazado 7260" d="M101.614,8.241H32.854A20.718,20.718,0,0,0,12.136,28.959v45.1A20.718,20.718,0,0,0,32.854,94.775h9.868a.85.85,0,0,1,.85.85v22.246a2.9,2.9,0,0,0,5.019,1.989l23.34-24.818a.85.85,0,0,1,.619-.268h29.063a20.718,20.718,0,0,0,20.718-20.718v-45.1A20.717,20.717,0,0,0,101.614,8.241Z" transform="translate(-5.388 -6.375)" fill="#ec5569"/>
    <path id="Trazado_7261" data-name="Trazado 7261" d="M52.288,96.318a.861.861,0,0,0-.823-.895H41.912c-11.077,0-20.057-9.768-20.057-21.817V26.116a23.628,23.628,0,0,1,.739-5.884,20.711,20.711,0,0,0-10.458,18v45.1a20.718,20.718,0,0,0,20.718,20.718h9.868a.85.85,0,0,1,.85.85v22.246a2.9,2.9,0,0,0,5.019,1.989l3.7-3.931V96.318Z" transform="translate(-5.387 -15.65)" fill="#e63950"/>
    <path id="Trazado_7262" data-name="Trazado 7262" d="M185.724,113.5h0a13.47,13.47,0,0,0-19.049,0l-2.971,2.971a1.815,1.815,0,0,1-2.566,0l-2.924-2.924a13.47,13.47,0,0,0-19.049,0h0a13.47,13.47,0,0,0,0,19.049l21.974,21.974a1.815,1.815,0,0,0,2.566,0l22.018-22.022A13.47,13.47,0,0,0,185.724,113.5Z" transform="translate(-100.598 -84.742)" fill="#ec5569"/>
    <path id="Trazado_7263" data-name="Trazado 7263" d="M185.724,113.5h0a13.47,13.47,0,0,0-19.049,0l-2.971,2.971a1.815,1.815,0,0,1-2.566,0l-2.924-2.924a13.47,13.47,0,0,0-19.049,0h0a13.47,13.47,0,0,0,0,19.049l21.974,21.974a1.815,1.815,0,0,0,2.566,0l22.018-22.022A13.47,13.47,0,0,0,185.724,113.5Z" transform="translate(-100.598 -84.742)" fill="#fff5f5"/>
    <path id="Trazado_7264" data-name="Trazado 7264" d="M146.212,132.766a13.47,13.47,0,0,1,0-19.049h0a13.4,13.4,0,0,1,6-3.475,13.46,13.46,0,0,0-13.047,3.475h0a13.47,13.47,0,0,0,0,19.049l21.974,21.974a1.815,1.815,0,0,0,2.566,0l2.24-2.24Z" transform="translate(-100.599 -84.915)" fill="#dce6eb"/>
    <path id="Trazado_7265" data-name="Trazado 7265" d="M96.353,0H27.594A22.245,22.245,0,0,0,14.262,4.392a1.7,1.7,0,1,0,2.029,2.74,18.858,18.858,0,0,1,11.3-3.723h68.76a19.035,19.035,0,0,1,19.014,19.014v45.1A19.035,19.035,0,0,1,96.353,86.534H67.291a2.563,2.563,0,0,0-1.861.8L42.089,112.156a1.2,1.2,0,0,1-2.073-.822V89.089a2.557,2.557,0,0,0-2.554-2.554H27.594A19.035,19.035,0,0,1,8.58,67.521v-45.1A18.907,18.907,0,0,1,11.9,11.685,1.7,1.7,0,0,0,9.088,9.757,22.3,22.3,0,0,0,5.171,22.423v45.1A22.448,22.448,0,0,0,27.594,89.943h9.013v21.392a4.584,4.584,0,0,0,2.91,4.284,4.633,4.633,0,0,0,1.708.328,4.586,4.586,0,0,0,3.347-1.455L67.66,89.943H96.353a22.448,22.448,0,0,0,22.423-22.423v-45.1A22.448,22.448,0,0,0,96.353,0Z"/>
    <path id="Trazado_7266" data-name="Trazado 7266" d="M174.194,129.918a1.7,1.7,0,1,0,2.411,2.41l5.089-5.09a15.174,15.174,0,0,0-21.46-21.459l-2.971,2.971a.106.106,0,0,1-.078.032.1.1,0,0,1-.077-.032l-2.924-2.924a15.174,15.174,0,0,0-21.459,21.459L154.7,149.261a3.518,3.518,0,0,0,4.976,0l12.076-12.078a1.7,1.7,0,1,0-2.411-2.41L157.264,146.85a.1.1,0,0,1-.077.032.1.1,0,0,1-.078-.032l-21.974-21.974a11.765,11.765,0,0,1,16.638-16.638l2.924,2.924a3.519,3.519,0,0,0,4.976,0l2.971-2.971a11.765,11.765,0,0,1,16.638,16.638Z" transform="translate(-95.235 -78.392)"/>
  </g>
</svg>
