<svg xmlns="http://www.w3.org/2000/svg" width="121.766" height="127.233" viewBox="0 0 121.766 127.233">
  <g id="instructions" transform="translate(-11)">
    <g id="Grupo_25320" data-name="Grupo 25320" transform="translate(13.485 2.485)">
      <path id="Trazado_6628" data-name="Trazado 6628" d="M111.92,10H30.263A9.28,9.28,0,0,0,21,19.24v6.614A3.16,3.16,0,0,0,24.156,29H99.5a3.16,3.16,0,0,0,3.156-3.148V19.24A9.275,9.275,0,0,1,111.92,10Z" transform="translate(-21 -9.999)" fill="#e6dfe1" fill-rule="evenodd"/>
    </g>
    <g id="Grupo_25321" data-name="Grupo 25321" transform="translate(21.548 2.485)">
      <path id="Trazado_6629" data-name="Trazado 6629" d="M123.883,29H53.445v95.816a3.16,3.16,0,0,0,3.156,3.148h66.506a32.856,32.856,0,0,1-7.279-6.973L98.58,98.856c-5.521-7.086,3.184-16.453,9.277-9.931l6.05,6.487c4.886,5.233,3.982,2.042,3.982-5.36V54.146a5.543,5.543,0,1,1,11.07,0V75.888a5.543,5.543,0,1,1,11.07,0v4.7a5.464,5.464,0,0,1,5.535-5.846V19.24a9.263,9.263,0,0,0-18.526,0v6.614A3.161,3.161,0,0,1,123.883,29ZM80.012,42.856a2.31,2.31,0,0,1,2.309,2.3v9.656a2.31,2.31,0,0,1-2.309,2.3H70.333a2.308,2.308,0,0,1-2.3-2.3V45.152a2.308,2.308,0,0,1,2.3-2.3Z" transform="translate(-53.445 -9.999)" fill="#fff" fill-rule="evenodd"/>
    </g>
    <g id="Grupo_25322" data-name="Grupo 25322" transform="translate(36.134 35.341)">
      <path id="Trazado_6630" data-name="Trazado 6630" d="M124.122,142.218h-9.679a2.308,2.308,0,0,0-2.3,2.3v9.656a2.308,2.308,0,0,0,2.3,2.3h9.679a2.31,2.31,0,0,0,2.309-2.3v-9.656A2.31,2.31,0,0,0,124.122,142.218Z" transform="translate(-112.141 -142.218)" fill="#a0c8ff" fill-rule="evenodd"/>
    </g>
    <g id="Grupo_25323" data-name="Grupo 25323" transform="translate(64.925 40.789)">
      <path id="Trazado_6631" data-name="Trazado 6631" d="M249.066,169.984V205.89c0,7.4.9,10.593-3.982,5.36l-6.05-6.487c-6.093-6.522-14.8,2.846-9.277,9.931L247,236.831a32.855,32.855,0,0,0,7.279,6.973c17.361,11.9,39.219-2.2,39.07-27.511V201.129a5.546,5.546,0,1,0-11.077,0v-4.7a5.543,5.543,0,1,0-11.07,0v-4.7a5.543,5.543,0,1,0-11.07,0V169.984a5.543,5.543,0,1,0-11.07,0Z" transform="translate(-227.999 -164.142)" fill="#ffdcd5" fill-rule="evenodd"/>
    </g>
    <g id="Grupo_25324" data-name="Grupo 25324" transform="translate(11 0)">
      <path id="Trazado_6632" data-name="Trazado 6632" d="M106.928,151.437h9.679a4.793,4.793,0,0,0,4.794-4.781V137a4.793,4.793,0,0,0-4.794-4.781h-9.679A4.789,4.789,0,0,0,102.141,137v9.656A4.789,4.789,0,0,0,106.928,151.437Zm.183-14.249h9.32v9.279h-9.32Z" transform="translate(-79.492 -99.362)"/>
      <path id="Trazado_6633" data-name="Trazado 6633" d="M124.741,69.45a8.321,8.321,0,0,0-3.475.757,7.662,7.662,0,0,0-5.114-5.076V11.726A11.75,11.75,0,0,0,104.4,0H22.748A11.75,11.75,0,0,0,11,11.726v6.614a5.643,5.643,0,0,0,5.641,5.633h2.422V117.3a5.643,5.643,0,0,0,5.641,5.633H90.47a25.527,25.527,0,0,0,13.945,4.3,24.554,24.554,0,0,0,8.072-1.383,28.758,28.758,0,0,0,14.524-11.791,38.531,38.531,0,0,0,5.753-21.118V77.777a7.911,7.911,0,0,0-8.024-8.327ZM24.033,117.3V23.972H46.8a2.485,2.485,0,1,0,0-4.97H16.641a.676.676,0,0,1-.671-.664V11.726A6.775,6.775,0,0,1,22.748,4.97h72.06a11.644,11.644,0,0,0-2.151,6.756v6.614a.676.676,0,0,1-.671.664H69.168a2.485,2.485,0,1,0,0,4.97H91.986a5.643,5.643,0,0,0,5.641-5.633V11.726a6.778,6.778,0,0,1,13.555,0v53.4a8.142,8.142,0,0,0-.985.376,7.827,7.827,0,0,0-7.6-5.458,8.336,8.336,0,0,0-3.05.577V46.632a8.026,8.026,0,1,0-16.04,0V82.538c0,1.131.021,2.162.039,3.072,0,.1,0,.2.006.3l-5.776-6.192c-3.365-3.6-8.23-3.972-11.831-.9a10.072,10.072,0,0,0-1.222,14.052L81.97,115.006q1.23,1.579,2.553,2.961H24.7A.676.676,0,0,1,24.033,117.3ZM127.795,92.955c.079,13.534-6.569,24.6-16.936,28.2-8.771,3.042-18.105-.4-24.968-9.2L68.643,89.815a5.167,5.167,0,0,1,.528-7.218,3.532,3.532,0,0,1,2.229-.9,3.757,3.757,0,0,1,2.743,1.406l6.051,6.487c1.708,1.829,3.832,4.106,6.187,3.152,1.876-.761,2.051-2.882,2.109-3.579.079-.958.055-2.149.025-3.655-.017-.887-.038-1.892-.038-2.973V46.632c0-3.2,2.541-3.358,3.05-3.358s3.05.162,3.05,3.358V82.207a2.485,2.485,0,0,0,4.97,0V68.374c0-3.2,2.541-3.358,3.05-3.358a3.089,3.089,0,0,1,2.1.788,3.369,3.369,0,0,1,.945,2.57V82.207a2.485,2.485,0,0,0,4.97,0V73.079c0-3.2,2.539-3.36,3.048-3.36a3.094,3.094,0,0,1,2.106.788,3.371,3.371,0,0,1,.946,2.571v9.128a2.485,2.485,0,0,0,4.97,0v-4.43c0-3.2,2.544-3.357,3.054-3.357a3.1,3.1,0,0,1,2.108.788,3.367,3.367,0,0,1,.946,2.569V92.955Z" transform="translate(-11 0)"/>
      <path id="Trazado_6634" data-name="Trazado 6634" d="M201.721,134.7a2.485,2.485,0,0,0,2.485,2.485h19.888a2.485,2.485,0,1,0,0-4.97H204.206A2.485,2.485,0,0,0,201.721,134.7Z" transform="translate(-154.327 -99.362)"/>
      <path id="Trazado_6635" data-name="Trazado 6635" d="M219.872,189.557H204.206a2.485,2.485,0,1,0,0,4.97h15.666a2.485,2.485,0,1,0,0-4.97Z" transform="translate(-154.327 -142.452)"/>
      <path id="Trazado_6636" data-name="Trazado 6636" d="M104.626,251.892h37.955a2.485,2.485,0,1,0,0-4.97H104.626a2.485,2.485,0,1,0,0,4.97Z" transform="translate(-79.492 -185.562)"/>
      <path id="Trazado_6637" data-name="Trazado 6637" d="M104.626,309.23H125.1a2.485,2.485,0,1,0,0-4.97H104.626a2.485,2.485,0,1,0,0,4.97Z" transform="translate(-79.492 -228.651)"/>
      <path id="Trazado_6638" data-name="Trazado 6638" d="M104.626,366.6h18.031a2.485,2.485,0,1,0,0-4.97H104.626a2.485,2.485,0,1,0,0,4.97Z" transform="translate(-79.492 -271.762)"/>
      <path id="Trazado_6639" data-name="Trazado 6639" d="M131.08,418.964H104.626a2.485,2.485,0,1,0,0,4.97H131.08a2.485,2.485,0,1,0,0-4.97Z" transform="translate(-79.492 -314.851)"/>
      <path id="Trazado_6640" data-name="Trazado 6640" d="M192.558,81.439h.014a2.492,2.492,0,1,0-.014,0Z" transform="translate(-145.573 -57.466)"/>
    </g>
  </g>
</svg>
