<svg id="password_1_" data-name="password (1)" xmlns="http://www.w3.org/2000/svg" width="118.688" height="65.032" viewBox="0 0 118.688 65.032">
  <g id="Grupo_19328" data-name="Grupo 19328" transform="translate(81.675 1.737)">
    <g id="Grupo_19327" data-name="Grupo 19327">
      <path id="Trazado_128" data-name="Trazado 128" d="M384.262,154.21h-6.95V141.34a11.141,11.141,0,0,0-11.15-11.165,10.888,10.888,0,0,0-8.119,3.76.923.923,0,0,1-1.247.128l-4.091-3.056a.925.925,0,0,1-.163-1.33,17.94,17.94,0,0,1,31.72,11.486V154.21Z" transform="translate(-352.332 -123.224)" fill="#f4fbff"/>
    </g>
  </g>
  <g id="Grupo_19330" data-name="Grupo 19330" transform="translate(93.958 1.737)">
    <g id="Grupo_19329" data-name="Grupo 19329">
      <path id="Trazado_129" data-name="Trazado 129" d="M407.029,123.224c-.572,0-1.142.029-1.707.084a17.963,17.963,0,0,1,16.219,17.855V154.21h3.428V141.164a17.96,17.96,0,0,0-17.939-17.94Z" transform="translate(-405.322 -123.224)" fill="#e4f6ff"/>
    </g>
  </g>
  <g id="Grupo_19331" data-name="Grupo 19331" transform="translate(1.737 21.316)">
    <path id="Trazado_130" data-name="Trazado 130" d="M88.94,249.665H28.484a20.989,20.989,0,1,1,0-41.979H88.94a20.989,20.989,0,0,1,0,41.979Z" transform="translate(-7.495 -207.686)" fill="#cbe2ff"/>
  </g>
  <path id="Trazado_131" data-name="Trazado 131" d="M102.429,215.213A21,21,0,0,1,82.979,244.1H22.523a20.915,20.915,0,0,1-8.389-1.745,21,21,0,0,0,19.45,13.089H94.04a20.992,20.992,0,0,0,8.389-40.233Z" transform="translate(-10.858 -192.152)" fill="#bed8fb"/>
  <g id="Grupo_19332" data-name="Grupo 19332" transform="translate(77.118 28.198)">
    <path id="Trazado_132" data-name="Trazado 132" d="M367.175,267.032H338.007a5.332,5.332,0,0,1-5.332-5.332v-19a5.332,5.332,0,0,1,5.332-5.332h29.169a5.332,5.332,0,0,1,5.332,5.332v19A5.332,5.332,0,0,1,367.175,267.032Z" transform="translate(-332.675 -237.372)" fill="#365e7d"/>
  </g>
  <g id="Grupo_19333" data-name="Grupo 19333" transform="translate(77.118 28.198)">
    <path id="Trazado_133" data-name="Trazado 133" d="M367.179,237.372H363.89V256.1a2.317,2.317,0,0,1-2.317,2.317h-28.9V261.7A5.328,5.328,0,0,0,338,267.032h29.176a5.328,5.328,0,0,0,5.328-5.328v-19a5.329,5.329,0,0,0-5.329-5.328Z" transform="translate(-332.675 -237.372)" fill="#2b4d66"/>
  </g>
  <g id="Grupo_19334" data-name="Grupo 19334" transform="translate(91.952 33.862)">
    <path id="Trazado_134" data-name="Trazado 134" d="M406.831,266.89a5.083,5.083,0,1,0-7.76,4.319,1.139,1.139,0,0,1,.527.97v2.885a.7.7,0,0,0,.695.695h2.91a.7.7,0,0,0,.695-.695v-2.885a1.138,1.138,0,0,1,.526-.97A5.077,5.077,0,0,0,406.831,266.89Z" transform="translate(-396.666 -261.808)" fill="#80b4fb"/>
  </g>
  <g id="Grupo_19335" data-name="Grupo 19335" transform="translate(95.496 33.862)">
    <path id="Trazado_135" data-name="Trazado 135" d="M412.916,261.839a4.946,4.946,0,0,0-.957.207,5.082,5.082,0,0,1,1.137,9.164,1.137,1.137,0,0,0-.526.97v2.885a.693.693,0,0,1-.612.687.686.686,0,0,0,.083.008h2.91a.7.7,0,0,0,.7-.695v-2.885a1.138,1.138,0,0,1,.526-.97,5.083,5.083,0,0,0-3.255-9.37Z" transform="translate(-411.957 -261.807)" fill="#61a2f9"/>
  </g>
  <g id="Grupo_19336" data-name="Grupo 19336">
    <path id="Trazado_136" data-name="Trazado 136" d="M34.657,264.973H22.727A19.252,19.252,0,0,1,8.472,232.781,1.737,1.737,0,1,0,5.9,230.444a22.727,22.727,0,0,0,16.827,38h11.93a1.738,1.738,0,0,0,0-3.475Z" transform="translate(0 -203.415)"/>
    <path id="Trazado_137" data-name="Trazado 137" d="M153.9,143.255v-7.846a19.442,19.442,0,0,0-2.084-8.81,1.738,1.738,0,0,0-3.1,1.561,16,16,0,0,1,1.714,7.25v6.79c-.082,0-3.475-.006-3.475-.006v-6.607a13.06,13.06,0,0,0-3.878-9.236,12.627,12.627,0,0,0-17.922.129l-2.8-2.091a16.42,16.42,0,0,1,11.872-5.18,16.046,16.046,0,0,1,9.686,3.222A1.738,1.738,0,1,0,146,119.647a19.663,19.663,0,0,0-26.881,3.161,2.662,2.662,0,0,0,.456,3.837l4.091,3.055a2.67,2.67,0,0,0,3.6-.38,9.152,9.152,0,0,1,13.378-.5,9.563,9.563,0,0,1,2.843,6.762v6.607h-5.445a22.823,22.823,0,0,0-16.29-6.882H61.289a22.5,22.5,0,0,0-10.128,2.376,1.738,1.738,0,1,0,1.551,3.11,19.052,19.052,0,0,1,8.577-2.011h60.456a19.059,19.059,0,0,1,10.947,3.407H121.008a7.074,7.074,0,0,0-7.066,7.066v19a7.074,7.074,0,0,0,7.066,7.066h9.2a19.245,19.245,0,0,1-8.467,1.962H81.461a1.737,1.737,0,0,0,0,3.475h40.283a22.7,22.7,0,0,0,14.743-5.437h13.7a7.074,7.074,0,0,0,7.066-7.066v-19A7.066,7.066,0,0,0,153.9,143.255Zm-.131,25.006a3.6,3.6,0,0,1-3.591,3.591H121.008a3.6,3.6,0,0,1-3.591-3.591v-19a3.6,3.6,0,0,1,3.591-3.591h29.176a3.6,3.6,0,0,1,3.591,3.591Z" transform="translate(-38.562 -115.732)"/>
    <path id="Trazado_138" data-name="Trazado 138" d="M400.537,256.052a6.82,6.82,0,0,0-11.319,4.252,6.775,6.775,0,0,0,2.883,6.433v2.572a2.435,2.435,0,0,0,2.432,2.432h2.91a2.435,2.435,0,0,0,2.432-2.432v-2.572a6.819,6.819,0,0,0,.661-10.684Zm-2.789,7.925a2.892,2.892,0,0,0-1.347,2.446v1.842h-.825v-1.843a2.894,2.894,0,0,0-1.348-2.446,3.345,3.345,0,1,1,3.52,0Z" transform="translate(-298.954 -222.19)"/>
    <path id="Trazado_139" data-name="Trazado 139" d="M64.713,274.867a1.737,1.737,0,0,0,2.374.636l3.173-1.832v3.664a1.737,1.737,0,0,0,3.475,0v-3.664l3.173,1.832a1.738,1.738,0,0,0,1.738-3.009l-3.173-1.832,3.173-1.832a1.738,1.738,0,1,0-1.738-3.009l-3.173,1.832v-3.664a1.737,1.737,0,0,0-3.475,0v3.664l-3.173-1.832a1.738,1.738,0,0,0-1.738,3.009l3.173,1.832-3.173,1.832a1.738,1.738,0,0,0-.636,2.374Z" transform="translate(-49.532 -228.286)"/>
    <path id="Trazado_140" data-name="Trazado 140" d="M158.043,277.335v-3.664l3.173,1.832a1.738,1.738,0,1,0,1.738-3.009l-3.173-1.832,3.173-1.832a1.738,1.738,0,1,0-1.738-3.009l-3.173,1.832v-3.664a1.737,1.737,0,1,0-3.475,0v3.664l-3.173-1.832a1.738,1.738,0,0,0-1.738,3.009l3.173,1.832-3.173,1.832a1.738,1.738,0,1,0,1.738,3.009l3.173-1.832v3.664a1.737,1.737,0,0,0,3.475,0Z" transform="translate(-114.297 -228.286)"/>
    <path id="Trazado_141" data-name="Trazado 141" d="M233.92,274.867a1.737,1.737,0,0,0,2.374.636l3.173-1.832v3.664a1.737,1.737,0,0,0,3.475,0v-3.664l3.173,1.832a1.738,1.738,0,0,0,1.738-3.009l-3.173-1.832,3.173-1.832a1.738,1.738,0,1,0-1.738-3.009l-3.173,1.832v-3.664a1.737,1.737,0,1,0-3.475,0v3.664l-3.173-1.832a1.738,1.738,0,0,0-1.738,3.009l3.173,1.832-3.173,1.832a1.738,1.738,0,0,0-.636,2.374Z" transform="translate(-179.515 -228.286)"/>
  </g>
</svg>
