<svg xmlns="http://www.w3.org/2000/svg" width="115.39" height="115.386" viewBox="0 0 115.39 115.386">
  <g id="product" transform="translate(0 -0.008)">
    <circle id="Elipse_885" data-name="Elipse 885" cx="39.215" cy="39.215" r="39.215" transform="translate(18.481 18.471)" fill="#e7f8ff"/>
    <circle id="Elipse_886" data-name="Elipse 886" cx="28.404" cy="28.404" r="28.404" transform="translate(29.292 29.282)" fill="#fff"/>
    <rect id="Rectángulo_12283" data-name="Rectángulo 12283" width="33.576" height="12.003" transform="translate(2.253 104.653) rotate(-45)" fill="#98e3ff"/>
    <rect id="Rectángulo_12284" data-name="Rectángulo 12284" width="10.446" height="12.003" transform="translate(18.606 88.299) rotate(-45)" fill="#fff"/>
    <path id="Trazado_6409" data-name="Trazado 6409" d="M289.7,130.633h-5.308a4.507,4.507,0,0,1-4.507-4.507V83.1H289.8Z" transform="translate(-216.807 -64.366)" fill="#fed79a"/>
    <path id="Trazado_6410" data-name="Trazado 6410" d="M356.422,130.633H324.393a4.507,4.507,0,0,1-4.507-4.507V83.1h41.043v43.024A4.507,4.507,0,0,1,356.422,130.633Z" transform="translate(-247.793 -64.366)" fill="#fee4bb"/>
    <path id="Trazado_6411" data-name="Trazado 6411" d="M206.066,73.1H156.008a2.254,2.254,0,0,0-2.254,2.254v8.456a31.064,31.064,0,0,0-3.13-.163,30.658,30.658,0,1,0,28.686,41.492h22.248a6.769,6.769,0,0,0,6.761-6.761V75.355A2.254,2.254,0,0,0,206.066,73.1Zm-47.8,4.507h4.507v40.771a6.728,6.728,0,0,0,.388,2.254h-2.641a2.256,2.256,0,0,1-2.254-2.254Zm-7.637,62.848a26.15,26.15,0,1,1,0-52.3,26.552,26.552,0,0,1,3.13.187v30.036a6.769,6.769,0,0,0,6.761,6.761H174.43A26.135,26.135,0,0,1,150.625,140.456Zm53.188-22.077a2.256,2.256,0,0,1-2.254,2.254H169.531a2.256,2.256,0,0,1-2.254-2.254V77.608h36.536Z" transform="translate(-92.93 -56.62)"/>
    <path id="Trazado_6412" data-name="Trazado 6412" d="M372.968,149.773a11.061,11.061,0,0,0,11.049-11.049v-4.132a2.254,2.254,0,1,0-4.507,0v4.132a6.541,6.541,0,1,1-13.082,0v-4.132a2.254,2.254,0,1,0-4.507,0v4.132A11.061,11.061,0,0,0,372.968,149.773Z" transform="translate(-280.352 -102.507)"/>
    <path id="Trazado_6413" data-name="Trazado 6413" d="M403.186,10.661a2.254,2.254,0,0,0,2.254-2.254V2.262a2.254,2.254,0,0,0-4.507,0V8.407A2.254,2.254,0,0,0,403.186,10.661Z" transform="translate(-310.573)"/>
    <path id="Trazado_6414" data-name="Trazado 6414" d="M439.087,30.865a2.247,2.247,0,0,0,1.594-.66l3.752-3.752a2.254,2.254,0,0,0-3.187-3.187l-3.752,3.752a2.254,2.254,0,0,0,1.594,3.847Z" transform="translate(-338.383 -17.505)"/>
    <path id="Trazado_6415" data-name="Trazado 6415" d="M352.817,30.172A2.254,2.254,0,0,0,356,26.985l-3.752-3.752a2.254,2.254,0,0,0-3.187,3.187Z" transform="translate(-269.884 -17.48)"/>
    <path id="Trazado_6416" data-name="Trazado 6416" d="M92.937,131.674a2.254,2.254,0,0,0-3.072.848,36.99,36.99,0,1,1-36.48-54.928,2.254,2.254,0,0,0-.52-4.477A41.449,41.449,0,0,0,23.139,137.2L.66,159.68a2.254,2.254,0,1,0,3.187,3.187l14.761-14.761,5.3,5.3L9.147,168.167a2.254,2.254,0,1,0,3.187,3.187l22.481-22.481a41.447,41.447,0,0,0,58.969-14.127A2.253,2.253,0,0,0,92.937,131.674ZM27.1,150.219l-5.3-5.3,4.068-4.068a41.819,41.819,0,0,0,5.3,5.3Z" transform="translate(0 -56.62)"/>
    <path id="Trazado_6417" data-name="Trazado 6417" d="M190.174,290.126a16.243,16.243,0,0,1-14.837-9.652,2.254,2.254,0,0,0-4.12,1.827,20.755,20.755,0,0,0,18.958,12.332,2.254,2.254,0,1,0,0-4.507Z" transform="translate(230.972 357.547) rotate(180)"/>
    <path id="Trazado_6418" data-name="Trazado 6418" d="M166.287,250.513a2.254,2.254,0,0,0,2.244-2.264v-.064a2.254,2.254,0,1,0-4.507,0v.084a2.254,2.254,0,0,0,2.253,2.244Z" transform="translate(-127.057 -190.5)"/>
    <path id="Trazado_7269" data-name="Trazado 7269" d="M166.287,250.513a2.254,2.254,0,0,0,2.244-2.264v-.064a2.254,2.254,0,1,0-4.507,0v.084a2.254,2.254,0,0,0,2.253,2.244Z" transform="translate(-101.057 -175.5)"/>
  </g>
</svg>
