<?xml version="1.0" standalone="no"?>
<!DOCTYPE svg PUBLIC "-//W3C//DTD SVG 1.1//EN" "http://www.w3.org/Graphics/SVG/1.1/DTD/svg11.dtd">
<svg xmlns="http://www.w3.org/2000/svg">
<metadata>Copyright (C) 2020 by original authors @ fontello.com</metadata>
<defs>
<font id="fontello" horiz-adv-x="1000" >
<font-face font-family="fontello" font-weight="400" font-stretch="normal" units-per-em="1000" ascent="850" descent="-150" />
<missing-glyph horiz-adv-x="1000" />
<glyph glyph-name="seat-recline-extra" unicode="&#x54;" d="M223 615c-38 27-47 78-20 116 26 38 78 47 116 21 37-27 46-79 20-117-26-37-78-46-116-20m444-557h-295c-62 0-114 45-123 106l-82 394h-84l84-406c15-102 103-177 206-177h294m9 250h-203l-43 171c66-37 137-64 215-51v88c-68-12-144 12-196 53l-68 53c-10 7-21 12-32 16-13 3-27 5-41 2h-1c-51-9-85-58-77-109l57-246c11-60 63-102 123-102h285l159-125 63 63" horiz-adv-x="1000" />

<glyph glyph-name="view-grid-plus-outline" unicode="&#x2708;" d="M125-25h333v333h-333m83-83h167v-167h-167m-83 334h333v333h-333m83-83h167v-167h-167m334 250v-333h333v333m-83-250h-167v167h167m-42-459h125v-83h-125v-125h-83v125h-125v83h125v125h83z" horiz-adv-x="1000" />

<glyph glyph-name="pencil" unicode="&#x270e;" d="M203-7l50 51-131 131-51-51v-60h72v-71h60z m291 518q0 12-12 12-5 0-9-4l-303-302q-4-4-4-10 0-12 13-12 5 0 9 4l303 302q3 4 3 10z m-30 107l232-232-464-465h-232v233z m381-54q0-29-20-50l-93-93-232 233 93 92q20 21 50 21 29 0 51-21l131-131q20-22 20-51z" horiz-adv-x="857.1" />

<glyph glyph-name="ok" unicode="&#x2715;" d="M0 339q0-35 24-60l246-239q24-25 60-25 36 0 60 25l505 495q25 24 25 59t-25 58q-25 25-60 25t-60-25l-445-435-185 181q-25 24-60 24t-61-24q-24-24-24-59z" horiz-adv-x="920.4" />

<glyph glyph-name="location" unicode="&#xe07a;" d="M0 473q0 156 110 267t267 110 267-110 110-267q0-123-53-193l-324-430-324 430q-53 70-53 193z m219 0q0-66 46-112t112-46 112 46 46 112-46 112-112 46-112-46-46-112z" horiz-adv-x="754" />

<glyph glyph-name="user-add" unicode="&#xe10f;" d="M573 533q0-108-77-184t-183-76-184 76-76 184 76 183 184 77 183-77 77-183z m-260-626q-140 0-227 32t-86 72q0 83 86 146t227 63q136 0 224-63t88-146q0-41-89-72t-223-32z m625 469q21 0 36-15t16-37-16-36-36-15l-104 0 0-105q0-22-16-37t-37-15-37 15-15 37l0 105-104 0q-21 0-37 15t-15 36 15 37 37 15l104 0 0 104q0 21 15 37t37 16 37-16 16-37l0-104 104 0z" horiz-adv-x="990" />

<glyph glyph-name="eye" unicode="&#xe740;" d="M0 350q6 49 64 110 79 80 176 129 129 60 260 60 137-2 260-60 103-53 176-129 64-73 64-110-6-49-64-109-79-80-176-129-129-61-260-61-137 2-260 61-103 53-176 129-64 72-64 109z m264 0q0-94 69-159t167-65 167 65 69 159-69 159-167 66-167-66-69-159z m86 1q0 60 44 102t106 42 106-42 44-102-44-102-106-43-106 43-44 102z" horiz-adv-x="1000" />

<glyph glyph-name="login" unicode="&#xe802;" d="M800 800q42 0 71-29t29-71l0-700q0-40-29-70t-71-30l-450 0q-40 0-69 30t-29 70l0 100 98 0 0-100 450 0 0 700-450 0 0-150-98 0 0 150q0 42 29 71t69 29l450 0z m-350-670l0 120-450 0 0 150 450 0 0 120 200-194z" horiz-adv-x="900" />

<glyph glyph-name="flight" unicode="&#xe804;" d="M268-120l124 400-180 0-112-100-100 0 80 170-80 170 100 0 112-100 180 0-124 400 100 0 224-400 274 0t36-4 46-11 36-21 16-34q0-32-38-49t-74-19l-38-2-258 0-224-400-100 0z" horiz-adv-x="1000" />

<glyph glyph-name="logout" unicode="&#xe805;" d="M502 0l0 100 98 0 0-100q0-40-29-70t-71-30l-400 0q-40 0-70 30t-30 70l0 700q0 42 30 71t70 29l400 0q42 0 71-29t29-71l0-150-98 0 0 150-402 0 0-700 402 0z m398 326l-198-196 0 120-450 0 0 150 450 0 0 120z" horiz-adv-x="900" />

<glyph glyph-name="playlist-edit" unicode="&#xe806;" d="M83 600v-83h500v83h-500m0-167v-83h500v83h-500m752-5c-6 0-12-3-16-7l-42-42 86-85 41 41c9 9 9 24 0 33l-53 53c-5 4-10 7-16 7m-82-73l-253-252v-86h86l252 253-85 85m-670-88v-84h334v84h-334z" horiz-adv-x="1000" />

<glyph glyph-name="cancel" unicode="&#xe807;" d="M452 194q18-18 18-43t-18-43q-18-16-43-16t-43 16l-132 152-132-152q-18-16-43-16t-43 16q-16 18-16 43t16 43l138 156-138 158q-16 18-16 43t16 43q18 16 43 16t43-16l132-152 132 152q18 16 43 16t43-16q18-18 18-43t-18-43l-138-158z" horiz-adv-x="470" />

<glyph glyph-name="flight-1" unicode="&#xe808;" d="M768 761q24-29 7-83t-61-96l-90-90 90-388q3-11-7-18l-71-54q-4-3-11-3-2 0-4 0-8 2-12 9l-155 284-145-145 30-108q3-10-5-17l-53-54q-5-5-13-5h-1q-9 1-14 7l-105 141-141 105q-6 4-7 13-1 7 5 14l54 54q5 5 12 5 4 0 5 0l108-30 145 145-284 155q-8 5-9 14-1 9 5 15l71 71q8 7 17 5l371-89 89 89q43 43 96 60t83-6z" horiz-adv-x="785.7" />

<glyph glyph-name="twitter" unicode="&#xe809;" d="M0-37q30-3 60-3 176 0 314 108-82 1-147 50t-89 125q20-4 47-4 35 0 67 9-88 17-145 87t-58 160l0 3q53-30 115-31-52 34-82 90t-31 120q0 68 35 127 94-117 230-186t290-78q-7 33-7 58 0 104 74 178t179 74q109 0 184-80 87 18 160 62-28-91-110-140 73 9 144 40-48-75-125-131l0-33q0-101-29-202t-90-194-145-165-201-115-253-42q-209 0-387 113z" horiz-adv-x="1230" />

<glyph glyph-name="cog" unicode="&#xe80a;" d="M571 350q0 59-41 101t-101 42-101-42-42-101 42-101 101-42 101 42 41 101z m286 61v-124q0-7-4-13t-11-7l-104-16q-10-30-21-51 19-27 59-77 6-6 6-13t-5-13q-15-21-55-61t-53-39q-7 0-14 5l-77 60q-25-13-51-21-9-76-16-104-4-16-20-16h-124q-8 0-14 5t-6 12l-16 103q-27 9-50 21l-79-60q-6-5-14-5-8 0-14 6-70 64-92 94-4 5-4 13 0 6 5 12 8 12 28 37t30 40q-15 28-23 55l-102 15q-7 1-11 7t-5 13v124q0 7 5 13t10 7l104 16q8 25 22 51-23 32-60 77-6 7-6 14 0 5 5 12 15 20 55 60t53 40q7 0 15-5l77-60q24 13 50 21 9 76 17 104 3 16 20 16h124q7 0 13-5t7-12l15-103q28-9 51-20l79 59q5 5 13 5 7 0 14-5 72-67 92-95 4-5 4-12 0-7-4-13-9-12-29-37t-30-40q15-28 23-54l102-16q7-1 12-7t4-13z" horiz-adv-x="857.1" />

<glyph glyph-name="asiento" unicode="&#xe80d;" d="M503 318h192v192a43 43 0 0 1-43 42h-255a43 43 0 0 1-43-42v-192h64a21 21 0 0 0 0-42h-64v-192h341v192h-192a21 21 0 0 0 0 42z m-106 277h255a84 84 0 0 0 40-11l143 205a149 149 0 0 1-119 61h-383a149 149 0 0 1-120-61l143-205a84 84 0 0 0 41 11z m-85-298v213a84 84 0 0 0 13 45l-134 192a148 148 0 0 1-7-46v-617h128z m425 213v-426h128v617a148 148 0 0 1-8 46l-133-193a84 84 0 0 0 13-44z m-404-575a21 21 0 0 0 0 43h608l-64 64h-706l-63-64h140a21 21 0 0 0 0-43h-169a63 63 0 0 1-1-14v-50a21 21 0 0 1 21-21h851a21 21 0 0 1 21 21v50a63 63 0 0 1-2 14z" horiz-adv-x="1046" />

<glyph glyph-name="arrow-left" unicode="&#xe80f;" d="M833 392v-84h-500l230-229-60-59-330 330 330 330 60-59-230-229h500z" horiz-adv-x="1000" />

<glyph glyph-name="account-plus" unicode="&#xe810;" d="M625 267c-111 0-333-56-333-167v-83h666v83c0 111-222 167-333 167m-375 166v125h-83v-125h-125v-83h125v-125h83v125h125v83m250-83a167 167 0 0 1 167 167 167 167 0 0 1-167 166 167 167 0 0 1-167-166 167 167 0 0 1 167-167z" horiz-adv-x="1000" />

<glyph glyph-name="broom" unicode="&#xe811;" d="M807 737l59-59-238-238c44-65 50-142 13-192l-263 264c50 37 127 31 191-14l238 239m-560-619c-84 84-135 184-149 277l203 87 310-310-87-203c-93 14-193 65-277 149z" horiz-adv-x="1000" />

<glyph glyph-name="image-area" unicode="&#xe813;" d="M833 642a83 83 0 0 0 84-84v-416a83 83 0 0 0-84-84h-666c-47 0-84 38-84 84v416c0 47 37 84 84 84h666m-625-459h584l-188 250-146-187-104 125-146-188z" horiz-adv-x="1000" />

<glyph glyph-name="view-grid" unicode="&#xe814;" d="M125 392h333v333h-333m0-750h333v333h-333m417-333h333v333h-333m0 417v-333h333v333" horiz-adv-x="1000" />

<glyph glyph-name="ok-circled-outline" unicode="&#xe827;" d="M0 350q0 207 147 354t353 146 354-146 146-354-146-354-354-146-353 146-147 354z m109 0q0-162 115-276t276-115 276 115 115 276-115 276-276 115-276-115-115-276z m106-51l94 92 93-94 289 291 94-93-291-289-92-94-93 94z" horiz-adv-x="1000" />

<glyph glyph-name="eye-off" unicode="&#xe828;" d="M0 326q6 49 64 110 79 80 176 128 129 61 260 61 29 0 59-2l74 129q10 16 23 18 4 0 8-2l51-32q17-7 2-33l-57-101-47-79-41-72-144-250-41-72-47-80-57-100q-15-25-31-15l-53 31q-15 8 0 33l49 86-8 4q-103 53-176 129-64 72-64 109z m264 0q0-74 47-133l48 84q-9 24-9 49 0 51 34 91t85 50l49 84-18 0q-98 0-167-66t-69-159z m177-295l41 71 18 0q98 0 167 65t69 159q0 74-47 133l63 109q2-2 4-3t4-1q103-52 176-128 64-73 64-110-6-49-64-109-79-80-176-129-129-61-260-61-25 0-59 4z m90 155l110 189q9-25 9-49 0-51-34-90t-85-50z" horiz-adv-x="1000" />

<glyph glyph-name="attention-alt" unicode="&#xe82e;" d="M0 350q0 95 37 182t100 149 149 100 183 37q95 0 182-37t149-100 100-149 37-182q0-95-37-182t-100-150-149-100-182-37q-96 0-183 37t-149 100-100 150-37 182z m117 0q0-96 47-177t128-128 177-47q95 0 176 47t128 128 47 177q0 95-47 176t-128 128-176 47q-72 0-137-28t-112-75-75-112-28-136z m271 196q-4 36 19 63t58 31q35 3 62-19t31-58q1-9 0-17l-27-244q-2-24-21-39t-43-13q-21 2-36 17t-17 35z m11-411q0 31 22 52 20 20 52 20t51-20q22-21 22-52t-22-52q-20-22-52-22-30 0-51 22-22 21-22 52z" horiz-adv-x="937.5" />

<glyph glyph-name="facebook" unicode="&#xe85a;" d="M500 765c-229 0-417-187-417-417 0-209 153-382 352-413v292h-106v121h106v92c0 104 62 162 158 162 45 0 92-8 92-8v-103h-52c-52 0-68-32-68-65v-78h116l-19-121h-97v-292a417 417 0 0 1 352 413c0 230-188 417-417 417z" horiz-adv-x="1000" />

<glyph glyph-name="swap-horizontal-bold" unicode="&#xe85b;" d="M333 433v-125h250v-208h-250v-125l-250 229 250 229m584 63l-250 229v-125h-250v-208h250v-125l250 229z" horiz-adv-x="1000" />

<glyph glyph-name="information-outline" unicode="&#xe871;" d="M458 475h84v83h-84m42-541c-184 0-333 149-333 333 0 184 149 333 333 333 184 0 333-149 333-333 0-184-149-333-333-333m0 750a417 417 0 0 1-417-417 417 417 0 0 1 417-417 417 417 0 0 1 417 417 417 417 0 0 1-417 417m-42-625h84v250h-84v-250z" horiz-adv-x="1000" />

<glyph glyph-name="asientos" unicode="&#xe872;" d="M20-111a20 20 0 1 0-20-20 20 20 0 0 0 20 20z m154 961a100 100 0 0 0 99-99v-90l121-166h278a59 59 0 1 0 0-117h-194l43-59h268a137 137 0 0 0 0-274h-250l-29-78h240a59 59 0 0 0 55-78h175a20 20 0 0 0 0-39h-882a20 20 0 0 0 0 39h284a58 58 0 0 0-3 19v40a20 20 0 0 0 1 6l34 91h-15a20 20 0 0 0-18 11l-305 588a20 20 0 0 0-2 9c0 0 0 1 0 1s0 0 0 1v96a100 100 0 0 0 100 99z m498-433a20 20 0 0 1 0 39h-353l27-39z m75-333h42a98 98 0 0 1 0 196h-278a20 20 0 0 0-15 8l-66 90h-57l94-137h185a98 98 0 0 0 98-98v-39a58 58 0 0 0-3-20z m-56 0a20 20 0 0 1 20 20v39a59 59 0 0 1-59 59h-180l-15-39h117a20 20 0 0 0 0-39h-132l-15-39z m59-195a20 20 0 0 1 0 39h-268a20 20 0 0 0-18 26l33 91h-42l-37-101v-36a20 20 0 0 1 20-19z m-354 223l40 105-159 232-42-28z m-283 546l104-202 55 36a19 19 0 0 0 9 3l0 0h64l-107 148c0 1-1 1-1 2l0 0a20 20 0 0 0-3 10v96a61 61 0 1 1-121 0z m539-495a20 20 0 1 0-19-20 20 20 0 0 0 19 20z" horiz-adv-x="1000" />

<glyph glyph-name="busqueda" unicode="&#xe873;" d="M216 296a19 19 0 0 1-27-27l2-2a19 19 0 0 1 27 27z m0 0m352 368a270 270 0 0 1-432-314 19 19 0 1 1 34 18 232 232 0 1 0 109-106 19 19 0 1 1-16-34 270 270 0 0 1 305 436z m0 0m415-672l-268 268a387 387 0 1 1-125-125l268-268a59 59 0 0 1 83 0l42 42a59 59 0 0 1 0 83z m-944 471a348 348 0 1 0 348-347 348 348 0 0 0-348 347z m654-236l43-43-70-70-43 43a390 390 0 0 1 70 70z m262-290l-42-42a20 20 0 0 0-28 0l-191 191 70 70 191-191a20 20 0 0 0 0-28z m0 0m-432 529a19 19 0 0 1 38 0 172 172 0 0 1-97 155 19 19 0 1 1-17-35 134 134 0 0 0 76-120z m0 0m-136 135a19 19 0 0 1 0 38h0a19 19 0 0 1 0-38z m0 0" horiz-adv-x="1000" />

<glyph glyph-name="confirmacion" unicode="&#xe874;" d="M782 150a182 182 0 0 1-92 58v544a98 98 0 0 1-98 98h-370a89 89 0 0 1-40-9l0 0-1 0-2-2-2-1-2-1-1-1-2-1-2-2-2-1-2-1-1-2-3-1-1-2c-1 0-1-1-2-2l-1-1c-1-1-2-1-3-2l0-1-59-66-73-83c-1-1-2-2-3-3l-1-1c0 0-1-1-1-2l-1-1-1-2-2-2 0-1c-1-1-2-2-2-3l0 0q-1-2-2-3v0a89 89 0 0 1-10-41v-607a98 98 0 0 1 98-99h414a182 182 0 0 1 270 244z m-611 629v-109a12 12 0 0 0-12-12h-96l59 66z m-73-833a59 59 0 0 0-59 59v607a50 50 0 0 0 1 7h119a51 51 0 0 1 51 51v140a50 50 0 0 0 12 1h370a59 59 0 0 0 59-59v-538c-3 0-5 0-7 0a182 182 0 0 1-182-182c0-3 0-5 0-7 0-1 0-2 0-2q0-3 0-6c0-1 0-1 0-2q1-3 1-7c0 0 0-1 0-2 1-1 1-3 1-5l1-2c0-2 1-5 1-7l0-1q1-3 2-6l0-2c1-2 2-4 2-7l1 0c0-2 1-4 2-6l1-2q1-3 2-6l0-1q2-3 3-6l1-2q1-3 3-5l0-2 1 0z m546-57a143 143 0 1 0 142 143 143 143 0 0 0-142-143z m0 0m-447 623h310a20 20 0 0 1 0 39h-310a20 20 0 0 1 0-39z m0 0m326-114a20 20 0 0 1-2 3 20 20 0 0 1-7 5 20 20 0 0 1-11 1 19 19 0 0 1-4-1 20 20 0 0 1-3-2 19 19 0 0 1-3-3 20 20 0 0 1-2-3 21 21 0 0 1-2-3 20 20 0 0 1-1-4 20 20 0 0 1 0-7 19 19 0 0 1 1-4 21 21 0 0 1 2-3 20 20 0 0 1 2-3 20 20 0 0 1 14-6 19 19 0 0 1 4 0 20 20 0 0 1 3 2 21 21 0 0 1 4 1 22 22 0 0 1 3 3 21 21 0 0 1 2 3 20 20 0 0 1 2 3 19 19 0 0 1 1 4 20 20 0 0 1-1 11 20 20 0 0 1-2 3z m0 0m-326-30h232a20 20 0 0 1 0 39h-232a20 20 0 1 1 0-39z m0 0m0-144h310a20 20 0 0 1 0 40h-310a20 20 0 0 1 0-40z m0 0m223-104h-223a20 20 0 0 1 0-39h223a20 20 0 0 1 0 39z m0 0m285-6a455 455 0 0 1-75-127l-61 39a20 20 0 1 1-21-33l81-52a20 20 0 0 1 29 10 471 471 0 0 0 76 136 20 20 0 0 1-29 27z m0 0" horiz-adv-x="825" />

<glyph glyph-name="viajeros" unicode="&#xe875;" d="M333 850a167 167 0 0 1-166-167v-125a167 167 0 0 1 333 0v125a167 167 0 0 1-167 167z m125-292a125 125 0 0 0-250 0v125a125 125 0 0 0 250 0z m105-254l-146 76v53h-42v-66a21 21 0 0 1 11-18l158-82a137 137 0 0 0 81-125v-250h-583v250a137 137 0 0 0 81 125l157 82a21 21 0 0 1 12 18v66h-42v-53l-147-76a178 178 0 0 1-103-162v-271a21 21 0 0 1 21-21h625a21 21 0 0 1 21 21v271a178 178 0 0 1-104 162z m-36-2l-381-381v96h-42v-146a21 21 0 0 1 13-19 21 21 0 0 1 8-2h0a21 21 0 0 1 15 6l416 417z m-6-285v-96l-381 381-30-29 417-417a21 21 0 0 1 15-6 21 21 0 0 1 8 2 21 21 0 0 1 13 19v146h-42z m-146 354a42 42 0 1 0-83 0h-42a83 83 0 1 1 167 0z m-69 327a21 21 0 0 1-34-9 90 90 0 0 0-84-68v-42a125 125 0 0 1 112 69 1021 1021 0 0 1 170-108l19 37a882 882 0 0 0-183 121z" horiz-adv-x="667" />

<glyph glyph-name="account-edit" unicode="&#xe889;" d="M904 294l-41-42-86 86 42 41c9 9 23 9 32 0l53-53c9-9 9-23 0-32m-404-233l253 252 85-85-252-253h-86v86m0 206c-184 0-333-75-333-167v-83h250v78l166 167c-27 3-55 5-83 5m0 416a167 167 0 0 1-167-166 167 167 0 0 1 167-167 167 167 0 0 1 167 167 167 167 0 0 1-167 166z" horiz-adv-x="1000" />

<glyph glyph-name="file-document-edit" unicode="&#xe88a;" d="M250 767c-46 0-83-37-83-84v-666a83 83 0 0 1 83-84h167v80l87 87h-254v83h337l83 84h-420v83h504l79 80v87l-250 250h-333m292-63l229-229h-229v229m298-396c-7 0-12-2-17-6l-43-43 88-86 42 42c9 9 9 24 0 33l-54 54c-5 4-11 6-16 6m-84-73l-256-257v-86h87l256 256-87 87z" horiz-adv-x="1000" />

<glyph glyph-name="alert-outline" unicode="&#xe88b;" d="M500 767l-458-792h916m-458 625l314-542h-628m272 375v-166h84v166m-84-250v-83h84v83" horiz-adv-x="1000" />

<glyph glyph-name="down-open" unicode="&#xf004;" d="M0 533q0 25 18 43t44 18 42-18l305-303 304 303q18 18 43 18t43-18q18-18 18-43t-18-43l-390-391-391 391q-18 19-18 43z" horiz-adv-x="817.4" />

<glyph glyph-name="up-open" unicode="&#xf005;" d="M0 167q0 26 18 43l391 391 390-391q17-17 17-43 0-26-17-44-18-17-44-17t-43 17l-303 305-305-305q-18-17-43-17t-43 17q-18 18-18 44z" horiz-adv-x="816.9" />

<glyph glyph-name="right-open" unicode="&#xf006;" d="M0 0q0 25 18 43l305 304-305 304q-18 18-18 44t18 43 44 18 43-18l390-391-390-391q-19-18-43-18t-44 18q-18 18-18 44z" horiz-adv-x="495.1" />

<glyph glyph-name="left-open" unicode="&#xf007;" d="M0 353l391 391q18 18 43 18 24 0 43-18 18-18 18-44t-18-43l-304-304 304-305q18-17 18-43t-18-43q-18-18-43-18t-43 18z" horiz-adv-x="495.1" />

<glyph glyph-name="menu" unicode="&#xf0c9;" d="M857 100v-71q0-15-10-25t-26-11h-785q-15 0-25 11t-11 25v71q0 15 11 25t25 11h785q15 0 26-11t10-25z m0 286v-72q0-14-10-25t-26-10h-785q-15 0-25 10t-11 25v72q0 14 11 25t25 10h785q15 0 26-10t10-25z m0 285v-71q0-14-10-25t-26-11h-785q-15 0-25 11t-11 25v71q0 15 11 26t25 10h785q15 0 26-10t10-26z" horiz-adv-x="857.1" />

<glyph glyph-name="mail-alt" unicode="&#xf0e0;" d="M1000 454v-443q0-37-26-63t-63-27h-822q-36 0-63 27t-26 63v443q25-27 56-49 202-137 278-192 32-24 51-37t53-27 61-13h2q28 0 61 13t53 27 51 37q95 68 278 192 32 22 56 49z m0 164q0-44-27-84t-68-69q-210-146-262-181-5-4-23-17t-30-22-29-18-32-15-28-5h-2q-12 0-27 5t-32 15-30 18-30 22-23 17q-51 35-147 101t-114 80q-35 23-65 64t-31 77q0 43 23 72t66 29h822q36 0 63-26t26-63z" horiz-adv-x="1000" />

<glyph glyph-name="circle-empty" unicode="&#xf10c;" d="M429 654q-83 0-153-41t-110-111-41-152 41-152 110-111 153-41 152 41 110 111 41 152-41 152-110 111-152 41z m428-304q0-117-57-215t-156-156-215-58-216 58-155 156-58 215 58 215 155 156 216 58 215-58 156-156 57-215z" horiz-adv-x="857.1" />

<glyph glyph-name="youtube-play" unicode="&#xf16a;" d="M397 221l270 139-270 141v-280z m103 481q94 0 181-3t128-5l41-2q0 0 9-1t13-2 13-2 16-5 16-7 17-11 16-15q4-3 9-10t16-33 15-56q4-36 7-76t3-64v-98q1-81-10-162-4-30-14-55t-18-35l-8-9q-7-8-16-15t-17-10-16-7-16-5-13-2-13-2-9-1q-140-11-350-11-115 2-201 4t-111 4l-28 3-20 2q-20 3-30 5t-29 12-31 23q-4 3-9 10t-16 33-15 56q-4 36-7 76t-3 64v98q-1 81 10 162 4 31 14 55t18 35l8 9q8 9 16 15t17 11 16 7 16 5 13 2 13 2 9 1q140 10 350 10z" horiz-adv-x="1000" />

<glyph glyph-name="instagram" unicode="&#xf16d;" d="M571 350q0 59-41 101t-101 42-101-42-42-101 42-101 101-42 101 42 41 101z m77 0q0-91-64-156t-155-64-156 64-64 156 64 156 156 64 155-64 64-156z m61 229q0-21-15-36t-37-15-36 15-15 36 15 36 36 15 37-15 15-36z m-280 123q-4 0-43 0t-59 0-54-2-57-5-40-11q-28-11-49-32t-33-49q-6-16-10-40t-6-58-1-53 0-59 0-43 0-43 0-59 1-53 6-58 10-40q12-28 33-49t49-32q16-6 40-11t57-5 54-2 59 0 43 0 42 0 59 0 54 2 58 5 39 11q28 11 50 32t32 49q6 16 10 40t6 58 1 53 0 59 0 43 0 43 0 59-1 53-6 58-10 40q-11 28-32 49t-50 32q-16 6-39 11t-58 5-54 2-59 0-42 0z m428-352q0-128-3-177-5-116-69-180t-179-69q-50-3-177-3t-177 3q-116 6-180 69t-69 180q-3 49-3 177t3 177q5 116 69 180t180 69q49 3 177 3t177-3q116-6 179-69t69-180q3-49 3-177z" horiz-adv-x="857.1" />

<glyph glyph-name="user-circle" unicode="&#xf2be;" d="M500 850q102 0 194-40t160-106 106-160 40-194q0-101-39-194t-107-159-159-107-195-40-195 40-159 106-106 160-40 194 40 194 106 160 160 106 194 40z m345-754q84 115 84 254 0 87-34 166t-92 137-137 92-166 34-166-34-137-92-91-137-35-166q0-139 84-254 36 183 170 183 73-72 175-72t175 72q134 0 170-183z m-131 361q0 89-62 152t-152 62-151-62-63-152 63-151 151-63 152 63 62 151z" horiz-adv-x="1000" />
</font>
</defs>
</svg>